test_filter.vcd
$date
	Fri Jun 19 03:44:04 2026
$end
$version
	Icarus Verilog
$end
$timescale
	1s
$end
$scope module test_filter $end
$var wire 1 ! result_valid $end
$var wire 16 " result_out [15:0] $end
$var parameter 32 # ACC_WIDTH $end
$var parameter 32 $ CLOCK_PERIOD_NS $end
$var parameter 32 % COEFF_FRAC_BITS $end
$var parameter 32 & COEFF_WIDTH $end
$var parameter 32 ' DATA_WIDTH $end
$var parameter 32 ( LATENCY $end
$var parameter 32 ) ORDER $end
$var parameter 35 * SAT_MAX $end
$var parameter 35 + SAT_MIN $end
$var parameter 33 , TAPS $end
$var parameter 32 - VECTOR_COUNT $end
$var parameter 32 . VECTOR_COUNT_SPEC $end
$var reg 1 / clk $end
$var reg 16 0 golden_val [15:0] $end
$var reg 1 1 rst_n $end
$var reg 16 2 sample_in [15:0] $end
$var reg 1 3 sample_valid $end
$var integer 32 4 checker_index [31:0] $end
$var integer 32 5 error_count [31:0] $end
$var integer 32 6 h_init [31:0] $end
$var integer 32 7 i [31:0] $end
$var integer 32 8 random_val [31:0] $end
$var integer 32 9 sample_count [31:0] $end
$var integer 32 : watchdog_timeout [31:0] $end
$scope function calculate_golden $end
$var reg 35 ; acc [34:0] $end
$var reg 35 < prod [34:0] $end
$var reg 16 = sample [15:0] $end
$var reg 35 > shifted [34:0] $end
$var integer 32 ? k [31:0] $end
$upscope $end
$scope module dut $end
$var wire 1 / clk $end
$var wire 1 1 rst_n $end
$var wire 16 @ sample_in [15:0] $end
$var wire 1 3 sample_valid $end
$var wire 35 A scaled_acc [34:0] $end
$var parameter 32 B ACC_WIDTH $end
$var parameter 32 C BASE_LATENCY $end
$var parameter 32 D COEFF_FRAC_BITS $end
$var parameter 32 E COEFF_WIDTH $end
$var parameter 32 F DATA_WIDTH $end
$var parameter 32 G LATENCY $end
$var parameter 32 H ORDER $end
$var parameter 32 I PIPE_DEPTH $end
$var parameter 35 J SAT_MAX $end
$var parameter 35 K SAT_MIN $end
$var parameter 32 L TAPS $end
$var reg 16 M data_in_reg [15:0] $end
$var reg 16 N result_out [15:0] $end
$var reg 16 O result_temp [15:0] $end
$var reg 1 ! result_valid $end
$var reg 7 P valid_sr [6:0] $end
$scope begin transposed_logic $end
$var integer 32 Q j [31:0] $end
$upscope $end
$upscope $end
$upscope $end
$enddefinitions $end
$comment Show the parameter values. $end
$dumpall
b1000001 L
b11111111111111111111000000000000000 K
b111111111111111 J
b0 I
b1000000 H
b1000 G
b10000 F
b1100 E
b1011 D
b11 C
b100011 B
b1111101000 .
b11001000 -
b1000001 ,
b11111111111111111111000000000000000 +
b111111111111111 *
b1000000 )
b1000 (
b10000 '
b1100 &
b1011 %
b1000 $
b100011 #
$end
#0
$dumpvars
b1000001 Q
b0 P
b0 O
b0 N
b0 M
b0 A
b0 @
bx ?
bx >
bx =
bx <
bx ;
b0 :
b0 9
b0 8
bx 7
b1000001 6
b0 5
b0 4
03
b0 2
01
b0 0
0/
b0 "
0!
$end
#4
b1000001 Q
1/
#8
0/
#12
b11010100100100 M
b1 P
b11111111111111111111111111111111 Q
13
b11010100100100 2
b11010100100100 @
b10010000101010011010100100100 8
b0 7
11
1/
#16
0/
#20
b110 O
b110 A
b11 P
b101111010000001 M
b11111111111111111111111111111111 Q
b101111010000001 2
b101111010000001 @
b11000000100010010101111010000001 8
b1 7
b1 9
b110 0
b110 >
b0 <
b11010100100100 ;
b1000001 ?
b11010100100100 =
1/
#24
0/
#28
b11001 O
b11001 A
b1101011000001001 M
b110 "
b110 N
b111 P
b11111111111111111111111111111111 Q
b1101011000001001 2
b1101011000001001 @
b10000100100001001101011000001001 8
b10 7
b10 9
b11001 0
b11001 >
b0 <
b1100100011001001 ;
b1000001 ?
b101111010000001 =
1/
#32
0/
#36
b11111 O
b11111 A
b1111 P
b11001 "
b11001 N
b101011001100011 M
b11111111111111111111111111111111 Q
b101011001100011 2
b101011001100011 @
b10110001111100000101011001100011 8
b11 7
b11 9
b11111 0
b11111 >
b0 <
b1111110101010011 ;
b1000001 ?
b1101011000001001 =
1/
#40
0/
#44
b11110 O
b11110 A
b111101100001101 M
b11111 "
b11111 N
b11111 P
b11111111111111111111111111111111 Q
b111101100001101 2
b111101100001101 @
b110101110010111101100001101 8
b100 7
b100 9
b11110 0
b11110 >
b0 <
b1111010010011011 ;
b1000001 ?
b101011001100011 =
1/
#48
0/
#52
b101100 O
b101100 A
b111111 P
b11110 "
b11110 N
b1001100110001101 M
b11111111111111111111111111111111 Q
b1001100110001101 2
b1001100110001101 @
b1000110110111111001100110001101 8
b101 7
b101 9
b101100 0
b101100 >
b0 <
b10110011110001010 ;
b1000001 ?
b111101100001101 =
1/
#56
0/
#60
b100111 O
b100111 A
b1000010001100101 M
b101100 "
b101100 N
b1111111 P
b11111111111111111111111111111111 Q
b1000010001100101 2
b1000010001100101 @
b10110010110000101000010001100101 8
b110 7
b110 9
b100111 0
b100111 >
b0 <
b10011101111010011 ;
b1000001 ?
b1001100110001101 =
1/
#64
0/
#68
b1111111111100010 O
b11111111111111111111111111111100010 A
1!
b100111 "
b100111 N
b101001000010010 M
b11111111111111111111111111111111 Q
b101001000010010 2
b101001000010010 @
b10001001001101110101001000010010 8
b111 7
b111 9
b1111111111100010 0
b11111111111111111111111111111100010 >
b0 <
b11111111111111111110001000100111100 ;
b1000001 ?
b1000010001100101 =
1/
#72
0/
#76
b1111111110111110 O
b11111111111111111111111111110111110 A
b1110001100000001 M
b1111111111100010 "
b1111111111100010 N
b11111111111111111111111111111111 Q
b1 4
b1 5
b1110001100000001 2
b1110001100000001 @
b111100111110001100000001 8
b1000 7
b1000 9
b110 0
b11111111111111111111111111110111110 >
b0 <
b11111111111111111011111011111001011 ;
b1000001 ?
b101001000010010 =
1/
#80
0/
#84
b1111111110011101 O
b11111111111111111111111111110011101 A
b1111111110111110 "
b1111111110111110 N
b1100110100001101 M
b11111111111111111111111111111111 Q
b1100110100001101 2
b1100110100001101 @
b110110101111100110100001101 8
b1001 7
b1001 9
b11111111111111111111111111110011101 >
b0 <
b11111111111111111001110100100111000 ;
b1000001 ?
b1110001100000001 =
b10 4
b10 5
b1111111110011101 0
1/
#88
0/
#92
b1111111101101011 O
b11111111111111111111111111101101011 A
b1111000101110110 M
b1111111110011101 "
b1111111110011101 N
b11111111111111111111111111111111 Q
b11 4
b11 5
b1111000101110110 2
b1111000101110110 @
b111011001000111111000101110110 8
b1010 7
b1010 9
b11111 0
b11111111111111111111111111101101011 >
b0 <
b11111111111111110110101111101010000 ;
b1000001 ?
b1100110100001101 =
1/
#96
0/
#100
b1111111101011111 O
b11111111111111111111111111101011111 A
b1111111101101011 "
b1111111101101011 N
b1100110100111101 M
b11111111111111111111111111111111 Q
b1100110100111101 2
b1100110100111101 @
b11110100011011100110100111101 8
b1011 7
b1011 9
b11111111111111111111111111101011111 >
b0 <
b11111111111111110101111100111100110 ;
b1000001 ?
b1111000101110110 =
b100 4
b100 5
b1111111101011111 0
1/
#104
0/
#108
b1111111101110001 O
b11111111111111111111111111101110001 A
b101011111101101 M
b1111111101011111 "
b1111111101011111 N
b11111111111111111111111111111111 Q
b101 4
b101 5
b101011111101101 2
b101011111101101 @
b1110110110101000101011111101101 8
b1100 7
b1100 9
b101100 0
b11111111111111111111111111101110001 >
b0 <
b11111111111111110111000111001001110 ;
b1000001 ?
b1100110100111101 =
1/
#112
0/
#116
b1111111110110001 O
b11111111111111111111111111110110001 A
b1111111101110001 "
b1111111101110001 N
b1111011110001100 M
b11111111111111111111111111111111 Q
b1111011110001100 2
b1111011110001100 @
b1000110001011011111011110001100 8
b1101 7
b1101 9
b11111111111111111111111111110110001 >
b0 <
b11111111111111111011000111111101110 ;
b1000001 ?
b101011111101101 =
b110 4
b110 5
b1111111110110001 0
1/
#120
0/
#124
b1010001 O
b1010001 A
b1110100111111001 M
b1111111110110001 "
b1111111110110001 N
b11111111111111111111111111111111 Q
b111 4
b111 5
b1110100111111001 2
b1110100111111001 @
b1111100111111011110100111111001 8
b1110 7
b1110 9
b1111111111100010 0
b1010001 >
b0 <
b101000100111010100 ;
b1000001 ?
b1111011110001100 =
1/
#128
0/
#132
b11110010 O
b11110010 A
b1010001 "
b1010001 N
b10010011000110 M
b11111111111111111111111111111111 Q
b10010011000110 2
b10010011000110 @
b11100011001101110010010011000110 8
b1111 7
b1111 9
b11110010 >
b0 <
b1111001011001010100 ;
b1000001 ?
b1110100111111001 =
b1000 4
b1000 5
b11110010 0
1/
#136
0/
#140
b101111111 O
b101111111 A
b1000010011000101 M
b11110010 "
b11110010 N
b11111111111111111111111111111111 Q
b1001 4
b1001 5
b1000010011000101 2
b1000010011000101 @
b11100010111101111000010011000101 8
b10000 7
b10000 9
b1111111110011101 0
b101111111 >
b0 <
b10111111110101110110 ;
b1000001 ?
b10010011000110 =
1/
#144
0/
#148
b1000000000 O
b1000000000 A
b101111111 "
b101111111 N
b1101001010101010 M
b11111111111111111111111111111111 Q
b1101001010101010 2
b1101001010101010 @
b11010101000100111101001010101010 8
b10001 7
b10001 9
b1000000000 >
b0 <
b100000000000001000010 ;
b1000001 ?
b1000010011000101 =
b1010 4
b1010 5
b1000000000 0
1/
#152
0/
#156
b111110001 O
b111110001 A
b1111011111100101 M
b1000000000 "
b1000000000 N
b11111111111111111111111111111111 Q
b1011 4
b1011 5
b1111011111100101 2
b1111011111100101 @
b1110010101011111111011111100101 8
b10010 7
b10010 9
b1111111101011111 0
b111110001 >
b0 <
b11111000100110101101 ;
b1000001 ?
b1101001010101010 =
1/
#160
0/
#164
b101111000 O
b101111000 A
b111110001 "
b111110001 N
b111001001110111 M
b11111111111111111111111111111111 Q
b111001001110111 2
b111001001110111 @
b10111011110100100111001001110111 8
b10011 7
b10011 9
b101111000 >
b0 <
b10111100001101110110 ;
b1000001 ?
b1111011111100101 =
b1100 4
b1100 5
b101111000 0
1/
#168
0/
#172
b10001000 O
b10001000 A
b1101011000010010 M
b101111000 "
b101111000 N
b11111111111111111111111111111111 Q
b1101 4
b1101 5
b1101011000010010 2
b1101011000010010 @
b10001001001100101101011000010010 8
b10100 7
b10100 9
b1111111110110001 0
b10001000 >
b0 <
b1000100011100110010 ;
b1000001 ?
b111001001110111 =
1/
#176
0/
#180
b1111111011100110 O
b11111111111111111111111111011100110 A
b10001000 "
b10001000 N
b1101101110001111 M
b11111111111111111111111111111111 Q
b1101101110001111 2
b1101101110001111 @
b1000111111011001101101110001111 8
b10101 7
b10101 9
b11111111111111111111111111011100110 >
b0 <
b11111111111111101110011011100100010 ;
b1000001 ?
b1101011000010010 =
b1110 4
b1110 5
b1111111011100110 0
1/
#184
0/
#188
b1111110100110011 O
b11111111111111111111111110100110011 A
b110100111110010 M
b1111111011100110 "
b1111111011100110 N
b11111111111111111111111111111111 Q
b1111 4
b1111 5
b110100111110010 2
b110100111110010 @
b1111001001100000110100111110010 8
b10110 7
b10110 9
b11110010 0
b11111111111111111111111110100110011 >
b0 <
b11111111111111010011001101110011000 ;
b1000001 ?
b1101101110001111 =
1/
#192
0/
#196
b1111101110001100 O
b11111111111111111111111101110001100 A
b1111110100110011 "
b1111110100110011 N
b1001011011001110 M
b11111111111111111111111111111111 Q
b1001011011001110 2
b1001011011001110 @
b11100111011101101001011011001110 8
b10111 7
b10111 9
b11111111111111111111111101110001100 >
b0 <
b11111111111110111000110000000100110 ;
b1000001 ?
b110100111110010 =
b10000 4
b10000 5
b1111101110001100 0
1/
#200
0/
#204
b1111101010010100 O
b11111111111111111111111101010010100 A
b111101011101000 M
b1111101110001100 "
b1111101110001100 N
b11111111111111111111111111111111 Q
b10001 4
b10001 5
b111101011101000 2
b111101011101000 @
b11110100000000000111101011101000 8
b11000 7
b11000 9
b1000000000 0
b11111111111111111111111101010010100 >
b0 <
b11111111111110101001010000010001010 ;
b1000001 ?
b1001011011001110 =
1/
#208
0/
#212
b1111101010111101 O
b11111111111111111111111101010111101 A
b1111101010010100 "
b1111101010010100 N
b100111011000101 M
b11111111111111111111111111111111 Q
b100111011000101 2
b100111011000101 @
b11100010110010100100111011000101 8
b11001 7
b11001 9
b11111111111111111111111101010111101 >
b0 <
b11111111111110101011110111011000100 ;
b1000001 ?
b111101011101000 =
b10010 4
b10010 5
b1111101010111101 0
1/
#216
0/
#220
b1111110001101010 O
b11111111111111111111111110001101010 A
b100100101011100 M
b1111101010111101 "
b1111101010111101 N
b11111111111111111111111111111111 Q
b10011 4
b10011 5
b100100101011100 2
b100100101011100 @
b101110010110000100100101011100 8
b11010 7
b11010 9
b101111000 0
b11111111111111111111111110001101010 >
b0 <
b11111111111111000110101010000100101 ;
b1000001 ?
b100111011000101 =
1/
#224
0/
#228
b1111111110100100 O
b11111111111111111111111111110100100 A
b1111110001101010 "
b1111110001101010 N
b10100010111101 M
b11111111111111111111111111111111 Q
b10100010111101 2
b10100010111101 @
b11011110100011100010100010111101 8
b11011 7
b11011 9
b11111111111111111111111111110100100 >
b0 <
b11111111111111111010010010000000001 ;
b1000001 ?
b100100101011100 =
b10100 4
b10100 5
b1111111110100100 0
1/
#232
0/
#236
b10000100110 O
b10000100110 A
b101100000101101 M
b1111111110100100 "
b1111111110100100 N
b11111111111111111111111111111111 Q
b10101 4
b10101 5
b101100000101101 2
b101100000101101 @
b10010110101010110101100000101101 8
b11100 7
b11100 9
b1111111011100110 0
b10000100110 >
b0 <
b1000010011011011000110 ;
b1000001 ?
b10100010111101 =
1/
#240
0/
#244
b101000000000 O
b101000000000 A
b10000100110 "
b10000100110 N
b10011001100101 M
b11111111111111111111111111111111 Q
b10011001100101 2
b10011001100101 @
b10110010101001110010011001100101 8
b11101 7
b11101 9
b101000000000 >
b0 <
b10100000000000010110110 ;
b1000001 ?
b101100000101101 =
b10110 4
b10110 5
b101000000000 0
1/
#248
0/
#252
b111111001011 O
b111111001011 A
b110001001100011 M
b101000000000 "
b101000000000 N
b11111111111111111111111111111111 Q
b10111 4
b10111 5
b110001001100011 2
b110001001100011 @
b10110001111011110110001001100011 8
b11110 7
b11110 9
b1111101110001100 0
b111111001011 >
b0 <
b11111100101111011111001 ;
b1000001 ?
b10011001100101 =
1/
#256
0/
#260
b1010100101010 O
b1010100101010 A
b111111001011 "
b111111001011 N
b1000011100001010 M
b11111111111111111111111111111111 Q
b1000011100001010 2
b1000011100001010 @
b101011100111000011100001010 8
b11111 7
b11111 9
b1010100101010 >
b0 <
b101010010101010101010110 ;
b1000001 ?
b110001001100011 =
b11000 4
b11000 5
b1010100101010 0
1/
#264
0/
#268
b1100100110000 O
b1100100110000 A
b10001010000000 M
b1010100101010 "
b1010100101010 N
b11111111111111111111111111111111 Q
b11001 4
b11001 5
b10001010000000 2
b10001010000000 @
b11000000001110110010001010000000 8
b100000 7
b100000 9
b1111101010111101 0
b1100100110000 >
b0 <
b110010011000010100001000 ;
b1000001 ?
b1000011100001010 =
1/
#272
0/
#276
b1101100011111 O
b1101100011111 A
b1100100110000 "
b1100100110000 N
b10000100100000 M
b11111111111111111111111111111111 Q
b10000100100000 2
b10000100100000 @
b10000011001000010000100100000 8
b100001 7
b100001 9
b1101100011111 >
b0 <
b110110001111111011000111 ;
b1000001 ?
b10001010000000 =
b11010 4
b11010 5
b1101100011111 0
1/
#280
0/
#284
b1101010100010 O
b1101010100010 A
b100010110101010 M
b1101100011111 "
b1101100011111 N
b11111111111111111111111111111111 Q
b11011 4
b11011 5
b100010110101010 2
b100010110101010 @
b1010101011110000100010110101010 8
b100010 7
b100010 9
b1111111110100100 0
b1101010100010 >
b0 <
b110101010001010110100111 ;
b1000001 ?
b10000100100000 =
1/
#288
0/
#292
b1011111100110 O
b1011111100110 A
b1101010100010 "
b1101010100010 N
b1100110010011101 M
b11111111111111111111111111111111 Q
b1100110010011101 2
b1100110010011101 @
b11001110110011001100110010011101 8
b100011 7
b100011 9
b1011111100110 >
b0 <
b101111110011011001110011 ;
b1000001 ?
b100010110101010 =
b11100 4
b11100 5
b1011111100110 0
1/
#296
0/
#300
b1001011100000 O
b1001011100000 A
b11111010010110 M
b1011111100110 "
b1011111100110 N
b11111111111111111111111111111111 Q
b11101 4
b11101 5
b11111010010110 2
b11111010010110 @
b11001011001000000011111010010110 8
b100100 7
b100100 9
b101000000000 0
b1001011100000 >
b0 <
b100101110000000111110111 ;
b1000001 ?
b1100110010011101 =
1/
#304
0/
#308
b110010001011 O
b110010001011 A
b1001011100000 "
b1001011100000 N
b1011100000010011 M
b11111111111111111111111111111111 Q
b1011100000010011 2
b1011100000010011 @
b10001001100000111011100000010011 8
b100101 7
b100101 9
b110010001011 >
b0 <
b11001000101110000001001 ;
b1000001 ?
b11111010010110 =
b11110 4
b11110 5
b110010001011 0
1/
#312
0/
#316
b10101110100 O
b10101110100 A
b11100000001101 M
b110010001011 "
b110010001011 N
b11111111111111111111111111111111 Q
b11111 4
b11111 5
b11100000001101 2
b11100000001101 @
b10000110101111000011100000001101 8
b100110 7
b100110 9
b1010100101010 0
b10101110100 >
b0 <
b1010111010001010111100 ;
b1000001 ?
b1011100000010011 =
1/
#320
0/
#324
b1111111010000100 O
b11111111111111111111111111010000100 A
b10101110100 "
b10101110100 N
b1101011001010011 M
b11111111111111111111111111111111 Q
b1101011001010011 2
b1101011001010011 @
b10101001101001111101011001010011 8
b100111 7
b100111 9
b11111111111111111111111111010000100 >
b0 <
b11111111111111101000010011110100011 ;
b1000001 ?
b11100000001101 =
b100000 4
b100000 5
b1111111010000100 0
1/
#328
0/
#332
b1111100010011000 O
b11111111111111111111111100010011000 A
b1101110101101011 M
b1111111010000100 "
b1111111010000100 N
b11111111111111111111111111111111 Q
b100001 4
b100001 5
b1101110101101011 2
b1101110101101011 @
b110101100111111101110101101011 8
b101000 7
b101000 9
b1101100011111 0
b11111111111111111111111100010011000 >
b0 <
b11111111111110001001100011110100000 ;
b1000001 ?
b1101011001010011 =
1/
#336
0/
#340
b1111001111100110 O
b11111111111111111111111001111100110 A
b1111100010011000 "
b1111100010011000 N
b10101011010101 M
b11111111111111111111111111111111 Q
b10101011010101 2
b10101011010101 @
b11101010101001100010101011010101 8
b101001 7
b101001 9
b11111111111111111111111001111100110 >
b0 <
b11111111111100111110011010010100011 ;
b1000001 ?
b1101110101101011 =
b100010 4
b100010 5
b1111001111100110 0
1/
#344
0/
#348
b1111000001100101 O
b11111111111111111111111000001100101 A
b100101000000010 M
b1111001111100110 "
b1111001111100110 N
b11111111111111111111111111111111 Q
b100011 4
b100011 5
b100101000000010 2
b100101000000010 @
b10000001000101110100101000000010 8
b101010 7
b101010 9
b1011111100110 0
b11111111111111111111111000001100101 >
b0 <
b11111111111100000110010101000111111 ;
b1000001 ?
b10101011010101 =
1/
#352
0/
#356
b1110111010101000 O
b11111111111111111111110111010101000 A
b1111000001100101 "
b1111000001100101 N
b11111010101110 M
b11111111111111111111111111111111 Q
b11111010101110 2
b11111010101110 @
b11010111010101100011111010101110 8
b101011 7
b101011 9
b11111111111111111111110111010101000 >
b0 <
b11111111111011101010100011100011001 ;
b1000001 ?
b100101000000010 =
b100100 4
b100100 5
b1110111010101000 0
1/
#360
0/
#364
b1110110110111100 O
b11111111111111111111110110110111100 A
b1110100100011101 M
b1110111010101000 "
b1110111010101000 N
b11111111111111111111111111111111 Q
b100101 4
b100101 5
b1110100100011101 2
b1110100100011101 @
b1110111111111110100100011101 8
b101100 7
b101100 9
b110010001011 0
b11111111111111111111110110110111100 >
b0 <
b11111111111011011011110001110111100 ;
b1000001 ?
b11111010101110 =
1/
#368
0/
#372
b1110110101111011 O
b11111111111111111111110110101111011 A
b1110110110111100 "
b1110110110111100 N
b111001011001111 M
b11111111111111111111111111111111 Q
b111001011001111 2
b111001011001111 @
b11100111110001010111001011001111 8
b101101 7
b101101 9
b11111111111111111111110110101111011 >
b0 <
b11111111111011010111101111110010000 ;
b1000001 ?
b1110100100011101 =
b100110 4
b100110 5
b1110110101111011 0
1/
#376
0/
#380
b1110110101111110 O
b11111111111111111111110110101111110 A
b100100100100011 M
b1110110101111011 "
b1110110101111011 N
b11111111111111111111111111111111 Q
b100111 4
b100111 5
b100100100100011 2
b100100100100011 @
b10001100001000100100100100011 8
b101110 7
b101110 9
b1111111010000100 0
b11111111111111111111110110101111110 >
b0 <
b11111111111011010111111010010111001 ;
b1000001 ?
b111001011001111 =
1/
#384
0/
#388
b1110111000011001 O
b11111111111111111111110111000011001 A
b1110110101111110 "
b1110110101111110 N
b110010100001010 M
b11111111111111111111111111111111 Q
b110010100001010 2
b110010100001010 @
b101000010010110010100001010 8
b101111 7
b101111 9
b11111111111111111111110111000011001 >
b0 <
b11111111111011100001100100111111000 ;
b1000001 ?
b100100100100011 =
b101000 4
b101000 5
b1110111000011001 0
1/
#392
0/
#396
b1110111100011010 O
b11111111111111111111110111100011010 A
b101011001010 M
b1110111000011001 "
b1110111000011001 N
b11111111111111111111111111111111 Q
b101001 4
b101001 5
b101011001010 2
b101011001010 @
b11100101011100110000101011001010 8
b110000 7
b110000 9
b1111001111100110 0
b11111111111111111111110111100011010 >
b0 <
b11111111111011110001101000100110100 ;
b1000001 ?
b110010100001010 =
1/
#400
0/
#404
b1111000010011001 O
b11111111111111111111111000010011001 A
b1110111100011010 "
b1110111100011010 N
b100110000111100 M
b11111111111111111111111111111111 Q
b100110000111100 2
b100110000111100 @
b10011110001100010100110000111100 8
b110001 7
b110001 9
b11111111111111111111111000010011001 >
b0 <
b11111111111100001001100101000011110 ;
b1000001 ?
b101011001010 =
b101010 4
b101010 5
b1111000010011001 0
1/
#408
0/
#412
b1111001110000100 O
b11111111111111111111111001110000100 A
b1011110111110010 M
b1111000010011001 "
b1111000010011001 N
b11111111111111111111111111111111 Q
b101011 4
b101011 5
b1011110111110010 2
b1011110111110010 @
b1111001011010001011110111110010 8
b110010 7
b110010 9
b1110111010101000 0
b11111111111111111111111001110000100 >
b0 <
b11111111111100111000010011100100010 ;
b1000001 ?
b100110000111100 =
1/
#416
0/
#420
b1111011111001100 O
b11111111111111111111111011111001100 A
b1111001110000100 "
b1111001110000100 N
b110000110001010 M
b11111111111111111111111111111111 Q
b110000110001010 2
b110000110001010 @
b1000101001011100110000110001010 8
b110011 7
b110011 9
b11111111111111111111111011111001100 >
b0 <
b11111111111101111100110011010010001 ;
b1000001 ?
b1011110111110010 =
b101100 4
b101100 5
b1111011111001100 0
1/
#424
0/
#428
b1111111000100101 O
b11111111111111111111111111000100101 A
b1011001101000001 M
b1111011111001100 "
b1111011111001100 N
b11111111111111111111111111111111 Q
b101101 4
b101101 5
b1011001101000001 2
b1011001101000001 @
b100000110001001011001101000001 8
b110100 7
b110100 9
b1110110101111011 0
b11111111111111111111111111000100101 >
b0 <
b11111111111111100010010101001100110 ;
b1000001 ?
b110000110001010 =
1/
#432
0/
#436
b11000111111 O
b11000111111 A
b1111111000100101 "
b1111111000100101 N
b11010011011000 M
b11111111111111111111111111111111 Q
b11010011011000 2
b11010011011000 @
b11101100010010110011010011011000 8
b110101 7
b110101 9
b11000111111 >
b0 <
b1100011111111100100101 ;
b1000001 ?
b1011001101000001 =
b101110 4
b101110 5
b11000111111 0
1/
#440
0/
#444
b111111111110 O
b111111111110 A
b1111001101111000 M
b11000111111 "
b11000111111 N
b11111111111111111111111111111111 Q
b101111 4
b101111 5
b1111001101111000 2
b1111001101111000 @
b111100001000001111001101111000 8
b110110 7
b110110 9
b1110111000011001 0
b111111111110 >
b0 <
b11111111111011110111000 ;
b1000001 ?
b11010011011000 =
1/
#448
0/
#452
b1101010011000 O
b1101010011000 A
b111111111110 "
b111111111110 N
b1001010001001 M
b11111111111111111111111111111111 Q
b1001010001001 2
b1001010001001 @
b11000100100010100001001010001001 8
b110111 7
b110111 9
b1101010011000 >
b0 <
b110101001100010111111100 ;
b1000001 ?
b1111001101111000 =
b110000 4
b110000 5
b1101010011000 0
1/
#456
0/
#460
b10010100011011 O
b10010100011011 A
b110111101011 M
b1101010011000 "
b1101010011000 N
b11111111111111111111111111111111 Q
b110001 4
b110001 5
b110111101011 2
b110111101011 @
b1110101110001010000110111101011 8
b111000 7
b111000 9
b1111000010011001 0
b10010100011011 >
b0 <
b1001010001101101110001001 ;
b1000001 ?
b1001010001001 =
1/
#464
0/
#468
b10111001111001 O
b10111001111001 A
b10010100011011 "
b10010100011011 N
b110010110110110 M
b11111111111111111111111111111111 Q
b110010110110110 2
b110010110110110 @
b1011011000000100110010110110110 8
b111001 7
b111001 9
b10111001111001 >
b0 <
b1011100111100101100111011 ;
b1000001 ?
b110111101011 =
b110010 4
b110010 5
b10111001111001 0
1/
#472
0/
#476
b11010111011001 O
b11010111011001 A
b1111100111000110 M
b10111001111001 "
b10111001111001 N
b11111111111111111111111111111111 Q
b110011 4
b110011 5
b1111100111000110 2
b1111100111000110 @
b1100011010010111111100111000110 8
b111010 7
b111010 9
b1111011111001100 0
b11010111011001 >
b0 <
b1101011101100100101000000 ;
b1000001 ?
b110010110110110 =
1/
#480
0/
#484
b11101000111101 O
b11101000111101 A
b11010111011001 "
b11010111011001 N
b1001110101110 M
b11111111111111111111111111111111 Q
b1001110101110 2
b1001110101110 @
b1010111000101010001001110101110 8
b111011 7
b111011 9
b11101000111101 >
b0 <
b1110100011110111110001000 ;
b1000001 ?
b1111100111000110 =
b110100 4
b110100 5
b11101000111101 0
1/
#488
0/
#492
b11101100001001 O
b11101100001001 A
b1010111100 M
b11101000111101 "
b11101000111101 N
b11111111111111111111111111111111 Q
b110101 4
b110101 5
b1010111100 2
b1010111100 @
b11011110011101010000001010111100 8
b111100 7
b111100 9
b11000111111 0
b11101100001001 >
b0 <
b1110110000100110100111101 ;
b1000001 ?
b1001110101110 =
1/
#496
0/
#500
b11100000011110 O
b11100000011110 A
b11101100001001 "
b11101100001001 N
b1101110100101010 M
b11111111111111111111111111111111 Q
b1101110100101010 2
b1101110100101010 @
b10101000011111101110100101010 8
b111101 7
b111101 9
b11100000011110 >
b0 <
b1110000001111010001001001 ;
b1000001 ?
b1010111100 =
b110110 4
b110110 5
b11100000011110 0
1/
#504
0/
#508
b11001001000101 O
b11001001000101 A
b1001101000001011 M
b11100000011110 "
b11100000011110 N
b11111111111111111111111111111111 Q
b110111 4
b110111 5
b1001101000001011 2
b1001101000001011 @
b10000101110101111001101000001011 8
b111110 7
b111110 9
b1101010011000 0
b11001001000101 >
b0 <
b1100100100010111010011010 ;
b1000001 ?
b1101110100101010 =
1/
#512
0/
#516
b10100100101010 O
b10100100101010 A
b11001001000101 "
b11001001000101 N
b1011111001110001 M
b11111111111111111111111111111111 Q
b1011111001110001 2
b1011111001110001 @
b10111000100101111011111001110001 8
b111111 7
b111111 9
b10100100101010 >
b0 <
b1010010010101000111000000 ;
b1000001 ?
b1001101000001011 =
b111000 4
b111000 5
b10100100101010 0
1/
#520
0/
#524
b1111010100010 O
b1111010100010 A
b100000110000101 M
b10100100101010 "
b10100100101010 N
b11111111111111111111111111111111 Q
b111001 4
b111001 5
b100000110000101 2
b100000110000101 @
b1000010111100100100000110000101 8
b1000000 7
b1000000 9
b10111001111001 0
b1111010100010 >
b0 <
b111101010001000011001111 ;
b1000001 ?
b1011111001110001 =
1/
#528
0/
#532
b1001101101001 O
b1001101101001 A
b1111010100010 "
b1111010100010 N
b101010101001111 M
b11111111111111111111111111111111 Q
b101010101001111 2
b101010101001111 @
b100111111100100101010101001111 8
b1000001 7
b1000001 9
b1001101101001 >
b11010100100100 <
b100110110100101010111000 ;
b1000001 ?
b100000110000101 =
b111010 4
b111010 5
b1001101101001 0
1/
#536
0/
#540
b100100010000 O
b100100010000 A
b110000000111011 M
b1001101101001 "
b1001101101001 N
b11111111111111111111111111111111 Q
b111011 4
b111011 5
b110000000111011 2
b110000000111011 @
b10011101110011000110000000111011 8
b1000010 7
b1000010 9
b11101000111101 0
b100100010000 >
b101111010000001 <
b10010001000001110011010 ;
b1000001 ?
b101010101001111 =
1/
#544
0/
#548
b10010101 O
b10010101 A
b100100010000 "
b100100010000 N
b11001100111010 M
b11111111111111111111111111111111 Q
b11001100111010 2
b11001100111010 @
b11101000001100011001100111010 8
b1000011 7
b1000011 9
b10010101 >
b11111111111111111111101011000001001 <
b1001010111100001001 ;
b1000001 ?
b110000000111011 =
b111100 4
b111100 5
b10010101 0
1/
#552
0/
#556
b1111101100010011 O
b11111111111111111111111101100010011 A
b11001001111110 M
b10010101 "
b10010101 N
b11111111111111111111111111111111 Q
b111101 4
b111101 5
b11001001111110 2
b11001001111110 @
b10111111001000110011001001111110 8
b1000100 7
b1000100 9
b11100000011110 0
b11111111111111111111111101100010011 >
b101011001100011 <
b11111111111110110001001111000111000 ;
b1000001 ?
b11001100111010 =
1/
#560
0/
#564
b1111100011001110 O
b11111111111111111111111100011001110 A
b1111101100010011 "
b1111101100010011 N
b100101100010101 M
b11111111111111111111111111111111 Q
b100101100010101 2
b100101100010101 @
b1010101010100100101100010101 8
b1000101 7
b1000101 9
b11111111111111111111111100011001110 >
b111101100001101 <
b11111111111110001100111011101101101 ;
b1000001 ?
b11001001111110 =
b111110 4
b111110 5
b1111100011001110 0
1/
#568
0/
#572
b1111101010001010 O
b11111111111111111111111101010001010 A
b1001101111110001 M
b1111100011001110 "
b1111100011001110 N
b11111111111111111111111111111111 Q
b111111 4
b111111 5
b1001101111110001 2
b1001101111110001 @
b1111000110110011001101111110001 8
b1000110 7
b1000110 9
b10100100101010 0
b11111111111111111111111101010001010 >
b11111111111111111111001100110001101 <
b11111111111110101000101010001101110 ;
b1000001 ?
b100101100010101 =
1/
#576
0/
